{"current_page":1,"data":[{"id":1,"county_id":1,"name":"Adjuntas","zip":"00601","lat":"18.18004","lng":"-66.75218","zcta":1,"parent_zcta":"","population":"17242","density":"111.4","imprecise":0,"military":0,"timezone":"America\/Puerto_Rico","created_at":"2020-06-02T17:20:32.000000Z","updated_at":"2020-06-02T17:20:32.000000Z"}],"first_page_url":"http:\/\/wezomtest.local\/paginate?page=1","from":1,"last_page":33099,"last_page_url":"http:\/\/wezomtest.local\/paginate?page=33099","next_page_url":"http:\/\/wezomtest.local\/paginate?page=2","path":"http:\/\/wezomtest.local\/paginate","per_page":1,"prev_page_url":null,"to":1,"total":33099}
